#FIG 3.2
Landscape
Center
Inches
Letter
100.00
Single
-2
1200 2
2 1 2 1 -1 -1 10 0 -1     4.000 0 1 0 0 0 2
	 1900 4400 6860 4400
2 1 0 1 -1 -1 10 0 -1     0.000 0 0 0 0 0 2
	 1900 4400 1975 4400
2 1 0 1 -1 -1 10 0 -1     0.000 0 0 0 0 0 2
	 6860 4400 6785 4400
4 2 -1 0 -1 0 16.000  0.000 4 200.000 240.000 1780 4500  0\001
2 1 2 1 -1 -1 10 0 -1     4.000 0 1 0 0 0 2
	 1900 3907 6860 3907
2 1 0 1 -1 -1 10 0 -1     0.000 0 0 0 0 0 2
	 1900 3907 1975 3907
2 1 0 1 -1 -1 10 0 -1     0.000 0 0 0 0 0 2
	 6860 3907 6785 3907
4 2 -1 0 -1 0 16.000  0.000 4 200.000 240.000 1780 4007  5\001
2 1 2 1 -1 -1 10 0 -1     4.000 0 1 0 0 0 2
	 1900 3413 6860 3413
2 1 0 1 -1 -1 10 0 -1     0.000 0 0 0 0 0 2
	 1900 3413 1975 3413
2 1 0 1 -1 -1 10 0 -1     0.000 0 0 0 0 0 2
	 6860 3413 6785 3413
4 2 -1 0 -1 0 16.000  0.000 4 200.000 360.000 1780 3513  10\001
2 1 2 1 -1 -1 10 0 -1     4.000 0 1 0 0 0 2
	 1900 2920 6860 2920
2 1 0 1 -1 -1 10 0 -1     0.000 0 0 0 0 0 2
	 1900 2920 1975 2920
2 1 0 1 -1 -1 10 0 -1     0.000 0 0 0 0 0 2
	 6860 2920 6785 2920
4 2 -1 0 -1 0 16.000  0.000 4 200.000 360.000 1780 3020  15\001
2 1 2 1 -1 -1 10 0 -1     4.000 0 1 0 0 0 2
	 1900 2427 4145 2427
2 1 2 1 -1 -1 10 0 -1     4.000 0 1 0 0 0 2
	 6740 2427 6860 2427
2 1 0 1 -1 -1 10 0 -1     0.000 0 0 0 0 0 2
	 1900 2427 1975 2427
2 1 0 1 -1 -1 10 0 -1     0.000 0 0 0 0 0 2
	 6860 2427 6785 2427
4 2 -1 0 -1 0 16.000  0.000 4 200.000 360.000 1780 2527  20\001
2 1 2 1 -1 -1 10 0 -1     4.000 0 1 0 0 0 2
	 1900 1933 4145 1933
2 1 2 1 -1 -1 10 0 -1     4.000 0 1 0 0 0 2
	 6740 1933 6860 1933
2 1 0 1 -1 -1 10 0 -1     0.000 0 0 0 0 0 2
	 1900 1933 1975 1933
2 1 0 1 -1 -1 10 0 -1     0.000 0 0 0 0 0 2
	 6860 1933 6785 1933
4 2 -1 0 -1 0 16.000  0.000 4 200.000 360.000 1780 2033  25\001
2 1 2 1 -1 -1 10 0 -1     4.000 0 1 0 0 0 2
	 1900 1440 6860 1440
2 1 0 1 -1 -1 10 0 -1     0.000 0 0 0 0 0 2
	 1900 1440 1975 1440
2 1 0 1 -1 -1 10 0 -1     0.000 0 0 0 0 0 2
	 6860 1440 6785 1440
4 2 -1 0 -1 0 16.000  0.000 4 200.000 360.000 1780 1540  30\001
2 1 2 1 -1 -1 10 0 -1     4.000 0 1 0 0 0 2
	 1900 4400 1900 1440
2 1 0 1 -1 -1 10 0 -1     0.000 0 0 0 0 0 2
	 1900 4400 1900 4325
2 1 0 1 -1 -1 10 0 -1     0.000 0 0 0 0 0 2
	 1900 1440 1900 1515
4 1 -1 0 -1 0 16.000  0.000 4 200.000 240.000 1900 4700  0\001
2 1 2 1 -1 -1 10 0 -1     4.000 0 1 0 0 0 2
	 2892 4400 2892 1440
2 1 0 1 -1 -1 10 0 -1     0.000 0 0 0 0 0 2
	 2892 4400 2892 4325
2 1 0 1 -1 -1 10 0 -1     0.000 0 0 0 0 0 2
	 2892 1440 2892 1515
4 1 -1 0 -1 0 16.000  0.000 4 200.000 240.000 2892 4700  2\001
2 1 2 1 -1 -1 10 0 -1     4.000 0 1 0 0 0 2
	 3884 4400 3884 1440
2 1 0 1 -1 -1 10 0 -1     0.000 0 0 0 0 0 2
	 3884 4400 3884 4325
2 1 0 1 -1 -1 10 0 -1     0.000 0 0 0 0 0 2
	 3884 1440 3884 1515
4 1 -1 0 -1 0 16.000  0.000 4 200.000 240.000 3884 4700  4\001
2 1 2 1 -1 -1 10 0 -1     4.000 0 1 0 0 0 2
	 4876 4400 4876 2515
2 1 2 1 -1 -1 10 0 -1     4.000 0 1 0 0 0 2
	 4876 1515 4876 1440
2 1 0 1 -1 -1 10 0 -1     0.000 0 0 0 0 0 2
	 4876 4400 4876 4325
2 1 0 1 -1 -1 10 0 -1     0.000 0 0 0 0 0 2
	 4876 1440 4876 1515
4 1 -1 0 -1 0 16.000  0.000 4 200.000 240.000 4876 4700  6\001
2 1 2 1 -1 -1 10 0 -1     4.000 0 1 0 0 0 2
	 5868 4400 5868 2515
2 1 2 1 -1 -1 10 0 -1     4.000 0 1 0 0 0 2
	 5868 1515 5868 1440
2 1 0 1 -1 -1 10 0 -1     0.000 0 0 0 0 0 2
	 5868 4400 5868 4325
2 1 0 1 -1 -1 10 0 -1     0.000 0 0 0 0 0 2
	 5868 1440 5868 1515
4 1 -1 0 -1 0 16.000  0.000 4 200.000 240.000 5868 4700  8\001
2 1 2 1 -1 -1 10 0 -1     4.000 0 1 0 0 0 2
	 6860 4400 6860 1440
2 1 0 1 -1 -1 10 0 -1     0.000 0 0 0 0 0 2
	 6860 4400 6860 4325
2 1 0 1 -1 -1 10 0 -1     0.000 0 0 0 0 0 2
	 6860 1440 6860 1515
4 1 -1 0 -1 0 16.000  0.000 4 200.000 360.000 6860 4700  10\001
2 1 0 1 -1 -1 10 0 -1     0.000 0 0 0 0 0 5
	 1900 4400 6860 4400 6860 1440 1900 1440 1900 4400
4 2 -1 0 -1 0 16.000  0.000 4 200.000 120.000 5945 1715 x\001
2 1 0 1 -1 -1 10 0 -1     0.000 0 0 0 0 0 2
	 6065 1615 6620 1615
2 1 0 1 -1 -1 10 0 -1     0.000 0 0 0 0 0 101
	 1900 4400 1900 4400 1950 4390 2000 4380 2050 4370 2100 4360
	 2151 4350 2201 4340 2251 4330 2301 4320 2351 4310 2401 4300
	 2451 4290 2501 4280 2551 4270 2601 4260 2652 4251 2702 4241
	 2752 4231 2802 4221 2852 4211 2902 4201 2952 4191 3002 4181
	 3052 4171 3102 4161 3153 4151 3203 4141 3253 4131 3303 4121
	 3353 4111 3403 4101 3453 4091 3503 4081 3553 4071 3603 4061
	 3654 4051 3704 4041 3754 4031 3804 4021 3854 4011 3904 4001
	 3954 3991 4004 3981 4054 3971 4104 3961 4155 3952 4205 3942
	 4255 3932 4305 3922 4355 3912 4405 3902 4455 3892 4505 3882
	 4555 3872 4605 3862 4656 3852 4706 3842 4756 3832 4806 3822
	 4856 3812 4906 3802 4956 3792 5006 3782 5056 3772 5106 3762
	 5157 3752 5207 3742 5257 3732 5307 3722 5357 3712 5407 3702
	 5457 3692 5507 3682 5557 3672 5607 3662 5658 3653 5708 3643
	 5758 3633 5808 3623 5858 3613 5908 3603 5958 3593 6008 3583
	 6058 3573 6108 3563 6159 3553 6209 3543 6259 3533 6309 3523
	 6359 3513 6409 3503 6459 3493 6509 3483 6559 3473 6609 3463
	 6660 3453 6710 3443 6760 3433 6810 3423 6860 3413
4 2 -1 0 -1 0 16.000  0.000 4 200.000 1560.000 5945 1915 log(x)/log(2)\001
2 1 2 1 -1 -1 10 0 -1     3.000 0 1 0 0 0 2
	 6065 1815 6620 1815
2 1 2 1 -1 -1 10 0 -1     3.000 0 1 0 0 0 91
	 2396 4400 2401 4399 2451 4385 2501 4373 2551 4361 2601 4351
	 2652 4341 2702 4332 2752 4323 2802 4315 2852 4307 2902 4300
	 2952 4293 3002 4286 3052 4280 3102 4274 3153 4268 3203 4263
	 3253 4257 3303 4252 3353 4247 3403 4242 3453 4238 3503 4233
	 3553 4229 3603 4224 3654 4220 3704 4216 3754 4212 3804 4209
	 3854 4205 3904 4201 3954 4198 4004 4194 4054 4191 4104 4188
	 4155 4184 4205 4181 4255 4178 4305 4175 4355 4172 4405 4169
	 4455 4167 4505 4164 4555 4161 4605 4159 4656 4156 4706 4153
	 4756 4151 4806 4148 4856 4146 4906 4144 4956 4141 5006 4139
	 5056 4137 5106 4134 5157 4132 5207 4130 5257 4128 5307 4126
	 5357 4124 5407 4122 5457 4120 5507 4118 5557 4116 5607 4114
	 5658 4112 5708 4110 5758 4108 5808 4106 5858 4104 5908 4103
	 5958 4101 6008 4099 6058 4097 6108 4096 6159 4094 6209 4092
	 6259 4091 6309 4089 6359 4087 6409 4086 6459 4084 6509 4083
	 6559 4081 6609 4080 6660 4078 6710 4077 6760 4075 6810 4074
	 6860 4072
4 2 -1 0 -1 0 16.000  0.000 4 200.000 1800.000 5945 2115 x*log(x)/log(2)\001
2 1 1 1 -1 -1 10 0 -1     3.000 0 0 0 0 0 2
	 6065 2015 6620 2015
2 1 1 1 -1 -1 10 0 -1     3.000 0 0 0 0 0 85
	 2396 4400 2401 4399 2451 4383 2501 4367 2551 4349 2601 4330
	 2652 4310 2702 4290 2752 4268 2802 4245 2852 4222 2902 4198
	 2952 4173 3002 4147 3052 4121 3102 4094 3153 4067 3203 4039
	 3253 4011 3303 3981 3353 3952 3403 3922 3453 3891 3503 3860
	 3553 3829 3603 3797 3654 3764 3704 3732 3754 3699 3804 3665
	 3854 3631 3904 3597 3954 3562 4004 3527 4054 3492 4104 3456
	 4155 3420 4205 3384 4255 3347 4305 3310 4355 3273 4405 3236
	 4455 3198 4505 3160 4555 3121 4605 3083 4656 3044 4706 3005
	 4756 2965 4806 2926 4856 2886 4906 2846 4956 2805 5006 2765
	 5056 2724 5106 2683 5157 2641 5207 2600 5257 2558 5307 2516
	 5357 2474 5407 2431 5457 2389 5507 2346 5557 2303 5607 2260
	 5658 2216 5708 2173 5758 2129 5808 2085 5858 2041 5908 1997
	 5958 1952 6008 1907 6058 1862 6108 1817 6159 1772 6209 1727
	 6259 1681 6309 1636 6359 1590 6409 1544 6459 1497 6509 1451
	 6521 1440
4 2 -1 0 -1 0 16.000  0.000 4 200.000 360.000 5945 2315 x*x\001
2 1 2 1 -1 -1 10 0 -1     6.000 0 1 0 0 0 2
	 6065 2215 6620 2215
2 1 2 1 -1 -1 10 0 -1     6.000 0 1 0 0 0 57
	 1900 4400 1900 4400 1950 4399 2000 4396 2050 4391 2100 4384
	 2151 4375 2201 4364 2251 4351 2301 4336 2351 4318 2401 4299
	 2451 4278 2501 4255 2551 4230 2601 4203 2652 4173 2702 4142
	 2752 4109 2802 4074 2852 4037 2902 3997 2952 3956 3002 3913
	 3052 3867 3102 3820 3153 3771 3203 3719 3253 3666 3303 3611
	 3353 3553 3403 3494 3453 3433 3503 3369 3553 3304 3603 3236
	 3654 3167 3704 3095 3754 3022 3804 2946 3854 2869 3904 2789
	 3954 2708 4004 2624 4054 2539 4104 2451 4155 2361 4205 2270
	 4255 2176 4305 2081 4355 1983 4405 1883 4455 1782 4505 1678
	 4555 1572 4605 1464 4617 1440
4 2 -1 0 -1 0 16.000  0.000 4 200.000 600.000 5945 2515 x*x*x\001
2 1 1 1 -1 -1 10 0 -1     6.000 0 0 0 0 0 2
	 6065 2415 6620 2415
2 1 1 1 -1 -1 10 0 -1     6.000 0 0 0 0 0 33
	 1900 4400 1900 4400 1950 4400 2000 4399 2050 4397 2100 4393
	 2151 4387 2201 4378 2251 4365 2301 4348 2351 4326 2401 4298
	 2451 4265 2501 4224 2551 4177 2601 4121 2652 4057 2702 3983
	 2752 3900 2802 3807 2852 3703 2902 3587 2952 3458 3002 3317
	 3052 3163 3102 2994 3153 2811 3203 2613 3253 2398 3303 2168
	 3353 1920 3403 1654 3441 1440
2 1 0 1 -1 -1 10 0 -1     0.000 0 0 0 0 0 5
	 1900 4400 6860 4400 6860 1440 1900 1440 1900 4400
