<?xml version="1.0" encoding="UTF-8" standalone="no"?>
<!-- Created with Inkscape (http://www.inkscape.org/) -->

<svg
   xmlns:dc="http://purl.org/dc/elements/1.1/"
   xmlns:cc="http://creativecommons.org/ns#"
   xmlns:rdf="http://www.w3.org/1999/02/22-rdf-syntax-ns#"
   xmlns:svg="http://www.w3.org/2000/svg"
   xmlns="http://www.w3.org/2000/svg"
   xmlns:sodipodi="http://sodipodi.sourceforge.net/DTD/sodipodi-0.dtd"
   xmlns:inkscape="http://www.inkscape.org/namespaces/inkscape"
   width="214.41798mm"
   height="203.028mm"
   viewBox="0 0 214.41798 203.028"
   version="1.1"
   id="svg17645"
   inkscape:version="0.92.2 (unknown)"
   sodipodi:docname="dba.svg">
  <defs
     id="defs17639" />
  <sodipodi:namedview
     id="base"
     pagecolor="#ffffff"
     bordercolor="#666666"
     borderopacity="1.0"
     inkscape:pageopacity="0.0"
     inkscape:pageshadow="2"
     inkscape:zoom="0.8230864"
     inkscape:cx="483.56511"
     inkscape:cy="446.07118"
     inkscape:document-units="mm"
     inkscape:current-layer="layer1"
     showgrid="false"
     fit-margin-top="0"
     fit-margin-left="0"
     fit-margin-right="0"
     fit-margin-bottom="0"
     inkscape:window-width="1680"
     inkscape:window-height="991"
     inkscape:window-x="0"
     inkscape:window-y="0"
     inkscape:window-maximized="1" />
  <metadata
     id="metadata17642">
    <rdf:RDF>
      <cc:Work
         rdf:about="">
        <dc:format>image/svg+xml</dc:format>
        <dc:type
           rdf:resource="http://purl.org/dc/dcmitype/StillImage" />
        <dc:title></dc:title>
      </cc:Work>
    </rdf:RDF>
  </metadata>
  <g
     inkscape:label="Layer 1"
     inkscape:groupmode="layer"
     id="layer1"
     transform="translate(-99.591903,-25.379958)">
    <g
       id="g22262"
       transform="matrix(2.1859267,0,0,2.1859267,71.893679,-124.18427)"
       style="stroke-width:0.45747191">
      <path
         id="path4"
         d="m 61.310749,149.79527 9.923712,4.5943 c 0,0 3.254509,2.54845 -0.145223,5.03827 -3.399732,2.48983 -9.911832,1.77941 -9.911832,1.77941 l -9.299502,-4.63282 c 0,0 -3.153722,-3.78284 -1.14524,-5.54364 2.008315,-1.76099 11.168608,-0.86245 10.577621,-1.23552 z"
         style="color:#000000;fill:#000000;stroke-width:0.37696543"
         inkscape:connector-curvature="0" />
      <path
         id="path6"
         d="m 64.534271,120.58196 0.271011,3.26017 3.523274,1.90202 15.990606,-1.35851 v -4.61886 l -19.784316,0.81518 z"
         style="fill:#000000;stroke-width:0.37696543;enable-background:new"
         inkscape:connector-curvature="0" />
      <path
         sodipodi:nodetypes="ccscc"
         id="path8"
         d="m 89.403596,98.62546 c 0,0 3.790179,-0.82837 21.357764,13.27109 -0.18671,0.33567 -15.395185,-0.50041 -24.338869,-2.13059 -8.943869,-1.63017 2.168127,-10.868092 2.981291,-11.139566 z"
         style="fill:#000000;stroke-width:0.37696543;enable-background:new"
         inkscape:connector-curvature="0" />
      <path
         id="path10"
         d="m 94.073763,85.600414 -2.709183,-1.224164 -12.739251,20.24277 3.660442,12.90596 3.115301,-0.40805 8.673063,-31.516881 z"
         style="fill:#000000;stroke:#000000;stroke-width:0.37496796;enable-background:new"
         inkscape:connector-curvature="0" />
      <path
         sodipodi:nodetypes="ccccccccc"
         id="path12"
         d="m 19.263199,102.60661 c -1.08404,1.35851 -0.746157,10.85506 0.542065,17.66009 1.030627,5.44484 -1.059758,13.96652 5.48119,19.26939 6.540945,5.30268 20.028121,0.97227 20.028121,0.97227 l 6.692403,-16.18324 -0.851844,-0.70856 -15.359342,-15.30461 -16.532593,-5.70572 z"
         style="fill:#14280b;fill-opacity:1;stroke-width:0.37696543;enable-background:new"
         inkscape:connector-curvature="0" />
      <path
         sodipodi:nodetypes="cccsccscccccccc"
         id="path14"
         d="m 40.078995,71.136372 c 5.318323,0.130253 9.063033,3.376468 8.892827,9.514983 l 0.03087,5.689338 c 1.465217,0.197048 3.027164,3.043669 3.027164,4.216852 0,1.117364 -1.579951,0.07527 -3.186975,0.479049 l 0.102955,2.503781 c 0,0 -0.898506,0.583023 -1.821915,1.649039 -1.021047,1.178733 -1.467723,5.571786 -4.392539,1.958714 l -2.512817,7.747492 -12.534707,-7.914583 3.633159,-7.513589 C 30.049181,88.895273 29.39913,87.394946 28.633107,84.938052 27.396138,80.96988 26.43295,76.980527 31.380869,73.50898 c 1.546174,-1.084985 6.281268,-2.431594 8.698859,-2.372418 z"
         style="fill:#f6e6cc;stroke:#000000;stroke-width:1.12490392;stroke-linecap:round;stroke-linejoin:round;enable-background:new"
         inkscape:connector-curvature="0" />
      <path
         id="path20"
         d="m 90.820182,84.670055 -9.214862,1.901847 -8.402071,28.256898 8.94387,2.17351 8.673063,-32.331883 z"
         style="fill:#ffffff;stroke:#000000;stroke-width:1.12490392;stroke-linecap:round;stroke-linejoin:round;enable-background:new"
         inkscape:connector-curvature="0" />
      <path
         id="path22"
         d="m 63.526401,119.6516 8.13052,-2.71702 12.738323,2.71702 -17.345383,3.26036 -3.523275,-3.26036 z"
         style="fill:#4d4d4d;stroke:#000000;stroke-width:0.35221872;enable-background:new"
         inkscape:connector-curvature="0" />
      <path
         id="path24"
         d="m 48.648371,108.10897 c 1.232292,0.0223 4.571979,0.4756 5.452891,0.95101 3.523275,1.90185 7.310675,6.19062 7.310675,6.19062 l 1.577085,-1.18881 0.01169,-0.0465 1.056996,-1.99433 c 0.212822,0.31799 5.281986,0.004 11.590953,2.11371 0,0 1.454305,2.26145 -2.23474,2.26517 -1.441569,-0.38759 -2.781389,-1.65664 -4.178672,-1.26254 l 5.037478,2.7179 c 0,0 -3.213846,3.89474 -5.11098,0.36272 -0.390861,-0.72773 -2.992427,-0.39225 -3.384809,-0.50296 -0.580351,1.82574 -1.440864,3.8141 -2.467889,3.8141 -1.897134,0 -23.038083,-2.18001 -24.393046,-5.44056 -1.355112,-3.26016 2.711039,-8.42162 2.982032,-8.69346 0,0 1.131301,0.39986 4.828308,0.43801 l 1.922192,0.2752 h -1.99e-4 z"
         style="fill:#f6e6cc;stroke:#000000;stroke-width:1.12490392;stroke-linecap:round;stroke-linejoin:round;enable-background:new"
         inkscape:connector-curvature="0"
         sodipodi:nodetypes="ccccccccccccscccccc" />
      <path
         sodipodi:nodetypes="ccccccc"
         id="path26"
         d="m 43.278936,89.371435 c -1.34932,2.024009 0.559228,1.211699 2.376382,2.531139 1.02038,0.740938 2.234761,0.846066 3.290518,0.733122 v 0.904679 c -1.590986,0.402107 -3.105835,-0.09676 -3.918812,-0.6987 -1.138578,-0.844949 -3.001244,-1.003193 -3.097408,-1.446231 z"
         style="fill:#001400;stroke-width:0.37696543;enable-background:new"
         inkscape:connector-curvature="0" />
      <path
         sodipodi:nodetypes="ccc"
         id="path28"
         d="m 49.144255,85.46392 -3.518793,-0.532843 c 0,0 2.638438,-2.861482 3.518793,0.532843 z"
         style="color:#000000;fill:#000000;stroke-width:0.37696543"
         inkscape:connector-curvature="0" />
      <path
         id="path30"
         d="m 49.460581,124.34356 16.467441,4.24282 c 4.361682,1.12369 8.446751,4.81823 4.617083,15.4499 -3.531558,12.14994 -2.110703,8.36397 -3.531558,9.4283 -4.184237,3.13401 -11.827393,-3.31139 -11.827393,-3.31139 l 0.507257,-10.1498 c 0,0 -16.005825,0.34721 -17.54473,-0.0391 -1.539015,-0.38554 10.157583,-15.23538 11.3119,-15.62149 z"
         style="color:#000000;fill:#6c5d53;stroke:#000000;stroke-width:1.12490392;stroke-linecap:round;stroke-linejoin:round"
         inkscape:connector-curvature="0"
         sodipodi:nodetypes="ccccccccc" />
      <rect
         rx="2.4103155"
         id="rect32"
         x="-19.265732"
         y="100.66843"
         width="6.1570539"
         height="24.209883"
         transform="matrix(-0.99152776,0.12989498,-8.4331141e-4,0.99999964,0,0)"
         style="color:#000000;fill:#000000;stroke:#000000;stroke-width:0.45010054"
         ry="2.367265" />
      <path
         id="path34"
         d="m 41.874834,123.37304 c 4.735317,0 8.561511,3.86974 8.561511,8.63821 H 16.278286 c 0,-4.76791 3.826005,-8.63821 8.561506,-8.63821 h 17.034857 z m 0,1.41247 H 24.839981 c -3.980807,0 -7.159029,3.21421 -7.159029,7.22574 h 31.351614 c 0,-4.01153 -3.178039,-7.22574 -7.159031,-7.22574 z"
         style="color:#000000;text-indent:0;text-transform:none;fill:#ffffff;stroke-width:0.37696543"
         inkscape:connector-curvature="0" />
      <path
         id="path36"
         d="m 43.153697,124.48947 c 5.021344,0 9.055978,4.06158 9.055978,9.09577 v 3.88109 c 0,5.0338 -4.034819,9.09575 -9.055978,9.09575 H 23.525291 c -5.021339,0 -9.055973,-4.06195 -9.055973,-9.09575 v -3.88109 c 0,-5.03382 4.034817,-9.09577 9.055973,-9.09577 z m 1.228784,5.4 H 21.977335 c -3.215717,0 -5.807222,2.59794 -5.807222,5.82182 v 2.48052 c 0,1.0288 0.259706,1.98074 0.723841,2.81807 0.332117,-1.25152 2.302327,-2.21928 4.713235,-2.22747 l 23.212556,-0.0688 c 2.344642,0 4.29746,0.87733 4.730119,2.07563 0.3901,-0.78503 0.622801,-1.65846 0.622801,-2.59868 v -2.48071 c 0,-3.22369 -2.574801,-5.82164 -5.790518,-5.82164 z"
         style="color:#000000;fill:#000000;stroke-width:0.37696543"
         inkscape:connector-curvature="0" />
      <path
         id="path38"
         d="m 50.42982,76.905917 c -2.106317,0.145133 -5.603412,-1.073393 -5.603412,-1.073393 0,0 0,0 -2.674297,0.23185 -0.702131,3.1569 -0.930529,2.475805 -0.930529,2.475805 0,0 -1.334008,1.506811 -0.98296,2.511604 0.351065,1.004232 -2.808301,0.143272 -2.808301,0.143272 0,0 -2.527471,-0.78913 -2.667977,1.721912 -0.140435,2.511604 -3.834086,8.47347 -3.834086,8.47347 l -1.080644,-2.589689 c 0,0 -1.253078,-2.069131 -1.885084,-4.939298 -0.631894,-2.869787 -2.143882,-4.869823 -0.269637,-8.33705 1.485299,-3.953045 6.670549,-6.327653 13.388478,-6.70943 4.191062,-0.187564 13.404014,-1.789228 15.202251,3.179553 0.964311,3.537375 -2.721248,4.381486 -5.853802,4.911394 z"
         style="color:#000000;fill:#000000;stroke-width:0.37696543"
         inkscape:connector-curvature="0"
         sodipodi:nodetypes="cccccccccccccc" />
      <path
         id="path16"
         d="m 27.683858,96.981037 c 0,0 -5.962397,-1.630171 -7.859524,2.71684 -1.897134,4.347213 -0.542065,8.694593 4.065255,10.867913 4.607433,2.1737 17.345384,7.87922 17.345384,7.87922 0,0 15.850319,3.3283 18.018556,2.78515 2.168127,-0.54352 4.246888,-6.63711 4.517881,-9.35395 0.271048,-2.71683 -21.452281,-8.64612 -24.162949,-9.46131 -2.710297,-0.81517 -12.738322,-5.977187 -11.924786,-5.433863 z"
         style="fill:#15280b;fill-opacity:1;stroke-width:0.37696543;enable-background:new"
         inkscape:connector-curvature="0"
         sodipodi:nodetypes="ccccccccc" />
    </g>
  </g>
</svg>
