<?xml version="1.0" encoding="UTF-8" standalone="no"?>
<!-- Created with Inkscape (http://www.inkscape.org/) -->

<svg
   xmlns:dc="http://purl.org/dc/elements/1.1/"
   xmlns:cc="http://creativecommons.org/ns#"
   xmlns:rdf="http://www.w3.org/1999/02/22-rdf-syntax-ns#"
   xmlns:svg="http://www.w3.org/2000/svg"
   xmlns="http://www.w3.org/2000/svg"
   xmlns:sodipodi="http://sodipodi.sourceforge.net/DTD/sodipodi-0.dtd"
   xmlns:inkscape="http://www.inkscape.org/namespaces/inkscape"
   version="1.1"
   id="svg2"
   xml:space="preserve"
   width="80"
   height="80"
   viewBox="0 0 80 80"
   sodipodi:docname="dbadmin.svg"
   inkscape:version="0.92.2 (unknown)"><metadata
     id="metadata8"><rdf:RDF><cc:Work
         rdf:about=""><dc:format>image/svg+xml</dc:format><dc:type
           rdf:resource="http://purl.org/dc/dcmitype/StillImage" /><dc:title></dc:title></cc:Work></rdf:RDF></metadata><defs
     id="defs6" /><sodipodi:namedview
     pagecolor="#ffffff"
     bordercolor="#666666"
     borderopacity="1"
     objecttolerance="10"
     gridtolerance="10"
     guidetolerance="10"
     inkscape:pageopacity="0"
     inkscape:pageshadow="2"
     inkscape:window-width="1680"
     inkscape:window-height="908"
     id="namedview4"
     showgrid="false"
     inkscape:zoom="3.1126509"
     inkscape:cx="-35.722346"
     inkscape:cy="25.905687"
     inkscape:window-x="0"
     inkscape:window-y="0"
     inkscape:window-maximized="0"
     inkscape:current-layer="g10" /><g
     id="g10"
     inkscape:groupmode="layer"
     inkscape:label="primary-database"
     transform="matrix(1.3333333,0,0,-1.3333333,0,80)"><path
       inkscape:connector-curvature="0"
       id="path16"
       style="fill:#ffffff;fill-opacity:1;fill-rule:evenodd;stroke:#000000;stroke-width:1.32525003;stroke-linecap:round;stroke-linejoin:round;stroke-miterlimit:4;stroke-dasharray:none;stroke-opacity:1"
       d="m 7.6096886,54.895653 c -1.106,0 -1.996,-0.898 -1.996,-2.011 V 6.2786534 c 0,-1.113 0.89,-2.007 1.996,-2.007 H 54.241689 c 1.106,0 1.996,0.894 1.996,2.007 V 52.884653 c 0,1.113 -0.89,2.011 -1.996,2.011 z" /><g
       transform="matrix(1,0,0,-1,0,60)"
       id="g18"
       style="stroke:#215bca;stroke-opacity:1"><path
         inkscape:connector-curvature="0"
         id="path20"
         style="fill:none;stroke:#215bca;stroke-width:2.50001502;stroke-linecap:round;stroke-linejoin:round;stroke-miterlimit:4;stroke-dasharray:2.499997, 2.49999700000000002;stroke-dashoffset:0;stroke-opacity:1"
         d="m 25.453,18.66 9.031,9.031" /></g><g
       transform="matrix(1,0,0,-1,0,60)"
       id="g22"
       style="stroke:#215bca;stroke-opacity:1"><path
         inkscape:connector-curvature="0"
         id="path24"
         style="fill:none;stroke:#215bca;stroke-width:2.50001502;stroke-linecap:round;stroke-linejoin:round;stroke-miterlimit:4;stroke-dasharray:2.499997, 2.49999700000000002;stroke-dashoffset:0;stroke-opacity:1"
         d="m 17.758,29.203 3.324,7.031" /></g><g
       transform="matrix(1,0,0,-1,0,60)"
       id="g26"
       style="stroke:#215bca;stroke-opacity:1"><path
         inkscape:connector-curvature="0"
         id="path28"
         style="fill:none;stroke:#215bca;stroke-width:2.50001502;stroke-linecap:round;stroke-linejoin:round;stroke-miterlimit:4;stroke-dasharray:2.499997, 2.49999700000000002;stroke-dashoffset:0;stroke-opacity:1"
         d="m 34.961,38.613 -8.176,5.989" /></g><path
       inkscape:connector-curvature="0"
       id="path30"
       style="fill:#ffffff;fill-opacity:1;fill-rule:evenodd;stroke:#215bca;stroke-opacity:1"
       d="m 11.77,50 c -0.907,0 -1.633,-0.727 -1.633,-1.633 V 32.504 c 0,-0.902 0.726,-1.633 1.633,-1.633 h 12.128 c 0.907,0 1.633,0.731 1.633,1.633 v 15.863 c 0,0.906 -0.726,1.633 -1.633,1.633 z" /><path
       inkscape:connector-curvature="0"
       id="path32"
       style="fill:#ffffff;fill-opacity:1;fill-rule:evenodd;stroke:#215bca;stroke-opacity:1"
       d="m 14.527,23.961 c -0.906,0 -1.632,-0.727 -1.632,-1.633 V 12.07 c 0,-0.906 0.726,-1.632 1.632,-1.632 h 12.129 c 0.906,0 1.633,0.726 1.633,1.632 v 10.258 c 0,0.906 -0.727,1.633 -1.633,1.633 z" /><path
       inkscape:connector-curvature="0"
       id="path34"
       style="fill:#ffffff;fill-opacity:1;fill-rule:evenodd;stroke:#215bca;stroke-opacity:1"
       d="m 36.102,45.527 c -0.907,0 -1.633,-0.726 -1.633,-1.632 V 22.43 c 0,-0.907 0.726,-1.633 1.633,-1.633 H 48.23 c 0.907,0 1.629,0.726 1.629,1.633 v 21.465 c 0,0.906 -0.722,1.632 -1.629,1.632 z" /><path
       inkscape:connector-curvature="0"
       id="path36"
       style="fill:#000000;fill-opacity:1;fill-rule:evenodd;stroke:#215bca;stroke-opacity:1"
       d="m 11.77,50 c -0.907,0 -1.633,-0.727 -1.633,-1.633 v -0.922 c 0,-0.906 0.726,-1.633 1.633,-1.633 h 12.128 c 0.907,0 1.633,0.727 1.633,1.633 v 0.922 c 0,0.906 -0.726,1.633 -1.633,1.633 z" /><g
       transform="matrix(1,0,0,-1,0,60)"
       id="g38"
       style="stroke:#215bca;stroke-opacity:1"><path
         inkscape:connector-curvature="0"
         id="path40"
         style="fill:none;stroke:#215bca;stroke-width:2.50001502;stroke-linecap:round;stroke-linejoin:round;stroke-miterlimit:4;stroke-dasharray:none;stroke-opacity:1"
         d="m 11.77,10 c -0.907,0 -1.633,0.727 -1.633,1.633 v 15.863 c 0,0.902 0.726,1.633 1.633,1.633 h 12.128 c 0.907,0 1.633,-0.731 1.633,-1.633 V 11.633 C 25.531,10.727 24.805,10 23.898,10 Z" /></g><path
       inkscape:connector-curvature="0"
       id="path42"
       style="fill:#000000;fill-opacity:1;fill-rule:evenodd;stroke:#215bca;stroke-opacity:1"
       d="m 36.102,45.527 c -0.907,0 -1.633,-0.726 -1.633,-1.632 v -0.922 c 0,-0.907 0.726,-1.633 1.633,-1.633 H 48.23 c 0.907,0 1.629,0.726 1.629,1.633 v 0.922 c 0,0.906 -0.722,1.632 -1.629,1.632 z" /><g
       transform="matrix(1,0,0,-1,0,60)"
       id="g44"
       style="stroke:#215bca;stroke-opacity:1"><path
         inkscape:connector-curvature="0"
         id="path46"
         style="fill:none;stroke:#215bca;stroke-width:2.50001502;stroke-linecap:round;stroke-linejoin:round;stroke-miterlimit:4;stroke-dasharray:none;stroke-opacity:1"
         d="m 36.102,14.473 c -0.907,0 -1.633,0.726 -1.633,1.632 V 37.57 c 0,0.907 0.726,1.633 1.633,1.633 H 48.23 c 0.907,0 1.629,-0.726 1.629,-1.633 V 16.105 c 0,-0.906 -0.722,-1.632 -1.629,-1.632 z" /></g><path
       inkscape:connector-curvature="0"
       id="path48"
       style="fill:#000000;fill-opacity:1;fill-rule:evenodd;stroke:#215bca;stroke-opacity:1"
       d="m 14.527,23.961 c -0.906,0 -1.632,-0.727 -1.632,-1.633 v -0.922 c 0,-0.902 0.726,-1.633 1.632,-1.633 h 12.129 c 0.906,0 1.633,0.731 1.633,1.633 v 0.922 c 0,0.906 -0.727,1.633 -1.633,1.633 z" /><g
       transform="matrix(1,0,0,-1,0,60)"
       id="g50"
       style="stroke:#215bca;stroke-opacity:1"><path
         inkscape:connector-curvature="0"
         id="path52"
         style="fill:none;stroke:#215bca;stroke-width:2.50001502;stroke-linecap:round;stroke-linejoin:round;stroke-miterlimit:4;stroke-dasharray:none;stroke-opacity:1"
         d="m 14.527,36.039 c -0.906,0 -1.632,0.727 -1.632,1.633 v 10.695 c 0,0.906 0.726,1.633 1.632,1.633 h 12.129 c 0.906,0 1.633,-0.727 1.633,-1.633 V 37.672 c 0,-0.906 -0.727,-1.633 -1.633,-1.633 z" /></g><g
       transform="matrix(1,0,0,-1,0,60)"
       id="g54"
       style="stroke:#215bca;stroke-opacity:1"><path
         inkscape:connector-curvature="0"
         id="path56"
         style="fill:none;stroke:#215bca;stroke-width:2.50001502;stroke-linecap:round;stroke-linejoin:round;stroke-miterlimit:4;stroke-dasharray:none;stroke-opacity:1"
         d="m 37.293,20.574 h 9.25" /></g><g
       transform="matrix(1,0,0,-1,0,60)"
       id="g58"
       style="stroke:#215bca;stroke-opacity:1"><path
         inkscape:connector-curvature="0"
         id="path60"
         style="fill:none;stroke:#215bca;stroke-width:2.50001502;stroke-linecap:round;stroke-linejoin:round;stroke-miterlimit:4;stroke-dasharray:none;stroke-opacity:1"
         d="m 37.293,23.574 h 7.5" /></g><g
       transform="matrix(1,0,0,-1,0,60)"
       id="g62"
       style="stroke:#215bca;stroke-opacity:1"><path
         inkscape:connector-curvature="0"
         id="path64"
         style="fill:none;stroke:#215bca;stroke-width:2.50001502;stroke-linecap:round;stroke-linejoin:round;stroke-miterlimit:4;stroke-dasharray:none;stroke-opacity:1"
         d="m 37.293,26.574 h 5.5" /></g><g
       transform="matrix(1,0,0,-1,0,60)"
       id="g66"
       style="stroke:#215bca;stroke-opacity:1"><path
         inkscape:connector-curvature="0"
         id="path68"
         style="fill:none;stroke:#215bca;stroke-width:2.50001502;stroke-linecap:round;stroke-linejoin:round;stroke-miterlimit:4;stroke-dasharray:none;stroke-opacity:1"
         d="m 37.293,29.574 h 9.75" /></g><g
       transform="matrix(1,0,0,-1,0,60)"
       id="g70"
       style="stroke:#215bca;stroke-opacity:1"><path
         inkscape:connector-curvature="0"
         id="path72"
         style="fill:none;stroke:#215bca;stroke-width:2.50001502;stroke-linecap:round;stroke-linejoin:round;stroke-miterlimit:4;stroke-dasharray:none;stroke-opacity:1"
         d="m 15.715,42.336 h 9.75" /></g><g
       transform="matrix(1,0,0,-1,0,60)"
       id="g74"
       style="stroke:#215bca;stroke-opacity:1"><path
         inkscape:connector-curvature="0"
         id="path76"
         style="fill:none;stroke:#215bca;stroke-width:2.50001502;stroke-linecap:round;stroke-linejoin:round;stroke-miterlimit:4;stroke-dasharray:none;stroke-opacity:1"
         d="m 15.715,45.34 h 8.5" /></g></g></svg>