#FIG 3.2  Produced by xfig version 3.2.5-alpha5
Landscape
Center
Metric
A4      
100.00
Single
-2
1200 2
2 2 0 2 0 7 50 -1 20 0.000 0 0 -1 0 0 5
	 900 2925 2700 2925 2700 3375 900 3375 900 2925
2 2 0 2 0 7 50 -1 20 0.000 0 0 -1 0 0 5
	 2700 2925 4500 2925 4500 3375 2700 3375 2700 2925
2 1 0 3 19 7 50 -1 -1 0.000 0 0 -1 1 0 2
	1 0 1.00 135.00 120.00
	 3375 2250 3375 2835
2 1 0 3 19 7 50 -1 -1 0.000 0 0 -1 1 0 2
	1 0 1.00 135.00 120.00
	 1575 2250 1575 2835
2 2 0 1 0 13 45 -1 20 0.000 0 0 -1 0 0 5
	 1575 2970 945 2970 945 3330 1575 3330 1575 2970
2 2 0 1 0 13 45 -1 20 0.000 0 0 -1 0 0 5
	 4455 2970 3375 2970 3375 3330 4455 3330 4455 2970
4 0 19 50 -1 20 12 0.0000 4 135 435 3510 2430 D\351but\001
4 0 19 50 -1 20 12 0.0000 4 135 255 3510 2685 File\001
4 0 19 50 -1 20 12 0.0000 4 135 255 1755 2685 File\001
4 0 19 50 -1 20 12 0.0000 4 135 225 1755 2430 Fin\001
