#FIG 3.2
Landscape
Center
Metric
A4      
100.00
Single
-2
1200 2
2 1 0 5 0 7 50 0 -1 0.000 0 0 -1 0 0 2
	 5550 2800 5760 2800
2 1 1 5 0 7 50 0 -1 5.000 0 0 -1 0 0 2
	 4520 2800 5550 2800
2 1 0 5 0 7 50 -1 -1 0.000 0 0 -1 0 0 2
	 1745 2800 2025 2800
2 1 0 5 0 7 50 -1 -1 0.000 0 0 -1 0 0 2
	 2600 2800 2880 2800
2 1 0 5 0 7 50 -1 -1 0.000 0 0 -1 0 0 2
	 3455 2800 3735 2800
2 1 0 5 0 7 50 -1 -1 0.000 0 0 -1 0 0 2
	 4310 2800 4530 2800
2 4 0 1 0 7 50 -1 19 0.000 0 0 7 0 0 5
	 3455 3100 2880 3100 2880 2500 3455 2500 3455 3100
2 4 0 1 0 7 50 -1 19 0.000 0 0 7 0 0 5
	 4310 3100 3735 3100 3735 2500 4310 2500 4310 3100
2 4 0 1 0 7 50 -1 19 0.000 0 0 7 0 0 5
	 6335 3100 5760 3100 5760 2500 6335 2500 6335 3100
2 4 0 1 0 7 50 -1 19 0.000 0 0 7 0 0 5
	 1745 3100 1170 3100 1170 2500 1745 2500 1745 3100
2 4 0 1 0 7 50 -1 19 0.000 0 0 7 0 0 5
	 2600 3100 2025 3100 2025 2500 2600 2500 2600 3100
4 0 0 50 0 16 10 0.0000 4 120 90 1470 2925 1\001
4 0 0 50 0 16 16 0.0000 4 135 135 1335 2835 e\001
4 0 0 50 0 16 16 0.0000 4 135 135 2190 2835 e\001
4 0 0 50 0 16 10 0.0000 4 120 90 2325 2925 2\001
4 0 0 50 0 16 16 0.0000 4 135 135 3045 2835 e\001
4 0 0 50 0 16 10 0.0000 4 120 90 3180 2925 3\001
4 0 0 50 0 16 16 0.0000 4 135 135 3900 2835 e\001
4 0 0 50 0 16 10 0.0000 4 120 90 4035 2925 4\001
4 0 0 50 0 16 16 0.0000 4 135 135 5925 2835 e\001
4 0 0 50 0 16 10 0.0000 4 120 120 6060 2925 N\001
