#FIG 3.2  Produced by xfig version 3.2.5b
Landscape
Center
Metric
A4      
100.00
Single
-2
1200 2
5 1 0 3 20 7 50 -1 -1 0.000 0 0 1 0 3453.007 3725.187 3015 3780 3420 3285 3870 3870
	1 0 1.00 180.00 150.00
6 3135 2460 3840 3165
2 4 0 2 0 18 50 -1 20 0.000 0 0 7 0 0 5
	 3825 3150 3150 3150 3150 2475 3825 2475 3825 3150
4 0 7 50 -1 22 18 0.0000 4 210 150 3397 2917 L\001
-6
6 4035 3360 4740 4065
2 4 0 2 0 7 50 -1 20 0.000 0 0 7 0 0 5
	 4725 4050 4050 4050 4050 3375 4725 3375 4725 4050
4 0 0 50 -1 22 18 0.0000 4 210 165 4305 3817 P\001
-6
6 2220 5280 2955 6015
2 4 0 4 12 2 50 -1 18 0.000 0 0 7 0 0 5
	 2925 5985 2250 5985 2250 5310 2925 5310 2925 5985
4 0 0 50 -1 22 18 0.0000 4 210 150 2497 5752 F\001
-6
6 1650 4245 2355 4950
2 4 0 2 0 7 50 -1 20 0.000 0 0 7 0 0 5
	 2340 4935 1665 4935 1665 4260 2340 4260 2340 4935
4 0 0 50 -1 22 18 0.0000 4 210 165 1912 4702 E\001
-6
6 2235 3330 2940 4035
2 4 0 2 0 7 50 -1 20 0.000 0 0 7 0 0 5
	 2925 4020 2250 4020 2250 3345 2925 3345 2925 4020
4 0 0 50 -1 22 18 0.0000 4 210 195 2497 3787 G\001
-6
6 945 5265 1710 6030
2 4 0 2 0 7 50 -1 20 0.000 0 0 7 0 0 5
	 1665 5985 990 5985 990 5310 1665 5310 1665 5985
4 0 0 50 -1 22 18 0.0000 4 210 180 1237 5752 A\001
-6
2 1 0 10 0 7 60 -1 -1 0.000 0 0 -1 0 0 2
	 4320 3465 3600 2925
2 1 0 10 0 7 60 -1 -1 0.000 0 0 -1 0 0 2
	 2115 4410 2475 3870
2 1 0 10 0 7 60 -1 -1 0.000 0 0 -1 0 0 2
	 2610 3465 3330 2925
2 1 0 10 0 7 60 -1 -1 0.000 0 0 -1 0 0 2
	 2509 5484 2070 4905
2 1 0 10 0 7 60 -1 -1 0.000 0 0 -1 0 0 2
	 1349 5484 1810 4905
