#FIG 3.2
Landscape
Center
Metric
A4      
100.00
Single
-2
1200 2
6 5040 2551 9197 6877
6 6982 3697 7207 3922
4 0 0 50 0 16 10 0.0000 4 120 90 7117 3922 1\001
4 0 0 50 0 16 16 0.0000 4 135 135 6982 3832 e\001
-6
6 7027 4192 8205 4386
4 0 0 50 0 16 16 0.0000 4 180 135 7027 4386 ?\001
4 1 0 50 0 24 16 0.0000 4 180 285 8062 4372 -1\001
-6
6 7026 6510 8204 6704
4 0 0 50 0 16 16 0.0000 4 180 135 7026 6704 ?\001
4 1 0 50 0 24 16 0.0000 4 180 285 8061 6690 -1\001
-6
2 2 0 2 0 7 52 0 -1 0.000 0 0 -1 0 0 5
	 6397 2566 8467 2566 8467 3061 6397 3061 6397 2566
2 2 0 2 0 7 52 0 -1 0.000 0 0 -1 0 0 5
	 6397 3061 8467 3061 8467 3556 6397 3556 6397 3061
2 2 0 2 0 7 52 0 -1 0.000 0 0 -1 0 0 5
	 6397 3556 8467 3556 8467 4051 6397 4051 6397 3556
2 2 0 2 0 7 52 0 -1 0.000 0 0 -1 0 0 5
	 6397 4051 8467 4051 8467 4546 6397 4546 6397 4051
2 2 0 2 0 7 52 0 -1 0.000 0 0 -1 0 0 5
	 6397 4546 8467 4546 8467 5041 6397 5041 6397 4546
2 2 0 2 0 7 52 0 -1 0.000 0 0 -1 0 0 5
	 6397 5041 8467 5041 8467 5536 6397 5536 6397 5041
2 2 0 1 0 7 51 0 18 0.000 0 0 -1 0 0 5
	 6487 2632 7708 2632 7708 2977 6487 2977 6487 2632
2 2 0 1 0 7 51 0 16 0.000 0 0 -1 0 0 5
	 7753 2632 8377 2632 8377 2977 7753 2977 7753 2632
2 2 0 1 0 7 51 0 18 0.000 0 0 -1 0 0 5
	 6487 4612 7708 4612 7708 4957 6487 4957 6487 4612
2 2 0 1 0 7 51 0 16 0.000 0 0 -1 0 0 5
	 7753 4612 8377 4612 8377 4957 7753 4957 7753 4612
2 2 0 1 0 7 51 0 18 0.000 0 0 -1 0 0 5
	 6487 4117 7708 4117 7708 4462 6487 4462 6487 4117
2 2 0 1 0 7 51 0 16 0.000 0 0 -1 0 0 5
	 7753 4117 8377 4117 8377 4462 7753 4462 7753 4117
2 2 0 1 0 7 51 0 18 0.000 0 0 -1 0 0 5
	 6487 3622 7708 3622 7708 3967 6487 3967 6487 3622
2 2 0 1 0 7 51 0 16 0.000 0 0 -1 0 0 5
	 7753 3622 8377 3622 8377 3967 7753 3967 7753 3622
2 2 0 1 0 7 51 0 18 0.000 0 0 -1 0 0 5
	 6487 3127 7708 3127 7708 3472 6487 3472 6487 3127
2 2 0 1 0 7 51 0 16 0.000 0 0 -1 0 0 5
	 7753 3127 8377 3127 8377 3472 7753 3472 7753 3127
2 2 0 1 0 7 51 0 18 0.000 0 0 -1 0 0 5
	 6487 5107 7708 5107 7708 5452 6487 5452 6487 5107
2 2 0 1 0 7 51 0 16 0.000 0 0 -1 0 0 5
	 7753 5107 8377 5107 8377 5452 7753 5452 7753 5107
2 1 1 2 0 7 50 0 -1 4.000 0 0 -1 0 0 2
	 6396 5521 6396 6376
2 1 1 2 0 7 50 0 -1 4.000 0 0 -1 0 0 2
	 8466 5528 8466 6383
2 2 0 2 0 7 52 0 -1 0.000 0 0 -1 0 0 5
	 6397 6367 8467 6367 8467 6862 6397 6862 6397 6367
2 2 0 1 0 7 51 0 18 0.000 0 0 -1 0 0 5
	 6487 6433 7708 6433 7708 6778 6487 6778 6487 6433
2 2 0 1 0 7 51 0 16 0.000 0 0 -1 0 0 5
	 7753 6433 8377 6433 8377 6778 7753 6778 7753 6433
3 2 0 3 0 7 50 0 -1 0.000 0 1 0 4
	1 1 1.00 120.00 180.00
	 8473 3795 9058 4035 9028 4537 8481 4807
	 0.000 -1.000 -1.000 0.000
4 0 0 50 0 14 16 0.0000 4 165 150 6127 3376 1\001
4 0 0 50 0 14 16 0.0000 4 165 150 6127 3871 2\001
4 0 0 50 0 14 16 0.0000 4 165 150 6127 4861 4\001
4 0 0 50 0 14 16 0.0000 4 165 150 6127 5356 5\001
4 0 0 50 0 14 16 0.0000 4 165 150 6127 2881 0\001
4 0 0 50 0 14 16 0.0000 4 165 150 6127 4366 3\001
4 0 0 50 0 16 10 0.0000 4 120 90 7117 4912 2\001
4 0 0 50 0 16 16 0.0000 4 135 135 6982 4822 e\001
4 1 0 50 0 26 16 0.0000 4 180 150 8062 3877 4\001
4 0 0 50 0 16 16 0.0000 4 180 135 7026 3405 ?\001
4 1 0 50 0 24 16 0.0000 4 180 285 8062 3382 -1\001
4 1 0 50 0 26 16 0.0000 4 180 150 8062 4867 0\001
4 0 0 50 0 16 16 0.0000 4 135 135 6982 2842 e\001
4 0 0 50 0 16 10 0.0000 4 120 90 7117 2932 3\001
4 1 0 50 0 26 16 0.0000 4 180 150 8062 2887 5\001
4 0 0 50 0 16 16 0.0000 4 135 135 6982 5317 e\001
4 0 0 50 0 16 10 0.0000 4 120 90 7117 5407 4\001
4 1 0 50 0 26 16 0.0000 4 180 300 8062 5362 -2\001
4 2 0 50 0 14 16 0.0000 4 150 1200 6240 6682 NBVALMAX\001
-6
6 1510 4108 4650 4708
6 2530 4308 2755 4533
6 2530 4308 2665 4443
4 0 0 50 0 16 16 0.0000 4 135 135 2530 4443 e\001
-6
4 0 0 50 0 16 10 0.0000 4 120 90 2665 4533 2\001
-6
6 3385 4308 3610 4533
4 0 0 50 0 16 16 0.0000 4 135 135 3385 4443 e\001
4 0 0 50 0 16 10 0.0000 4 120 90 3520 4533 3\001
-6
6 4240 4308 4465 4533
4 0 0 50 0 16 16 0.0000 4 135 135 4240 4443 e\001
4 0 0 50 0 16 10 0.0000 4 120 90 4375 4533 4\001
-6
6 1671 4303 1896 4528
6 1671 4303 1806 4438
4 0 0 50 0 16 16 0.0000 4 135 135 1671 4438 e\001
-6
4 0 0 50 0 16 10 0.0000 4 120 90 1806 4528 1\001
-6
2 1 0 5 0 7 50 -1 -1 0.000 0 0 -1 0 0 2
	 2085 4408 2365 4408
2 1 0 5 0 7 50 -1 -1 0.000 0 0 -1 0 0 2
	 2940 4408 3220 4408
2 1 0 5 0 7 50 -1 -1 0.000 0 0 -1 0 0 2
	 3795 4408 4075 4408
2 4 0 1 0 7 52 -1 19 0.000 0 0 7 0 0 5
	 2085 4708 1510 4708 1510 4108 2085 4108 2085 4708
2 4 0 1 0 7 52 -1 19 0.000 0 0 7 0 0 5
	 2940 4708 2365 4708 2365 4108 2940 4108 2940 4708
2 4 0 1 0 7 52 -1 19 0.000 0 0 7 0 0 5
	 3795 4708 3220 4708 3220 4108 3795 4108 3795 4708
2 4 0 1 0 7 52 -1 19 0.000 0 0 7 0 0 5
	 4650 4708 4075 4708 4075 4108 4650 4108 4650 4708
-6
