#FIG 3.2
Landscape
Center
Metric
A4      
100.00
Single
-2
1200 2
6 3216 2289 3531 2469
2 1 0 2 0 7 50 0 -1 0.000 0 0 -1 0 0 2
	 3261 2334 3486 2334
2 1 0 2 0 7 50 0 -1 0.000 0 0 -1 0 0 2
	 3306 2379 3441 2379
2 1 0 2 0 7 50 0 -1 0.000 0 0 -1 0 0 2
	 3351 2424 3396 2424
-6
6 2414 981 3392 1283
1 3 0 1 0 0 45 0 20 0.000 1 0.0000 2674 1126 25 25 2674 1126 2699 1126
1 3 0 1 0 0 45 0 20 0.000 1 0.0000 3107 1126 25 25 3107 1126 3132 1126
2 2 0 2 0 7 60 -1 20 0.000 0 0 -1 0 0 5
	 2429 996 3377 996 3377 1268 2429 1268 2429 996
2 2 0 1 0 7 50 -1 13 0.000 0 0 -1 0 0 5
	 2477 1041 2882 1041 2882 1221 2477 1221 2477 1041
2 2 0 1 0 7 50 -1 13 0.000 0 0 -1 0 0 5
	 2914 1041 3319 1041 3319 1221 2914 1221 2914 1041
-6
6 7818 2115 8133 2295
2 1 0 2 0 7 50 0 -1 0.000 0 0 -1 0 0 2
	 7863 2160 8088 2160
2 1 0 2 0 7 50 0 -1 0.000 0 0 -1 0 0 2
	 7908 2205 8043 2205
2 1 0 2 0 7 50 0 -1 0.000 0 0 -1 0 0 2
	 7953 2250 7998 2250
-6
1 3 0 1 0 0 45 0 20 0.000 1 0.0000 5972 1945 25 25 5972 1945 5997 1945
1 3 0 1 0 0 45 0 20 0.000 1 0.0000 4937 1945 25 25 4937 1945 4962 1945
1 3 0 1 0 0 45 0 20 0.000 1 0.0000 5965 2124 25 25 5965 2124 5990 2124
1 3 0 1 0 0 45 0 20 0.000 1 0.0000 3902 1945 25 25 3902 1945 3927 1945
1 3 0 1 0 0 45 0 20 0.000 1 0.0000 4933 2124 25 25 4933 2124 4958 2124
1 3 0 1 0 0 45 0 20 0.000 1 0.0000 3898 2124 25 25 3898 2124 3923 2124
1 3 0 1 0 0 45 0 20 0.000 1 0.0000 7457 1945 25 25 7457 1945 7482 1945
1 3 0 1 0 0 45 0 20 0.000 1 0.0000 7456 2124 25 25 7456 2124 7481 2124
2 2 0 1 0 7 50 -1 17 0.000 0 0 -1 0 0 5
	 5738 1346 6213 1346 6213 1821 5738 1821 5738 1346
2 2 0 2 0 7 60 -1 -1 0.000 0 0 -1 0 0 5
	 5692 1300 6259 1300 6259 2250 5692 2250 5692 1300
2 2 0 1 0 7 50 -1 13 0.000 0 0 -1 0 0 5
	 5738 1866 6213 1866 6213 2024 5738 2024 5738 1866
2 2 0 1 0 7 50 -1 17 0.000 0 0 -1 0 0 5
	 4703 1346 5178 1346 5178 1821 4703 1821 4703 1346
2 2 0 2 0 7 60 -1 -1 0.000 0 0 -1 0 0 5
	 4657 1300 5224 1300 5224 2250 4657 2250 4657 1300
2 2 0 1 0 7 50 -1 13 0.000 0 0 -1 0 0 5
	 4703 1866 5178 1866 5178 2024 4703 2024 4703 1866
2 1 0 2 0 7 45 -1 -1 0.000 0 0 -1 1 0 4
	1 1 1.00 60.00 90.00
	 4950 1945 5452 1945 5452 1527 5676 1527
2 2 0 1 0 7 50 -1 13 0.000 0 0 -1 0 0 5
	 5738 2047 6213 2047 6213 2205 5738 2205 5738 2047
2 2 0 1 0 7 50 -1 13 0.000 0 0 -1 0 0 5
	 4703 2047 5178 2047 5178 2205 4703 2205 4703 2047
2 2 0 1 0 7 50 -1 17 0.000 0 0 -1 0 0 5
	 3668 1346 4143 1346 4143 1821 3668 1821 3668 1346
2 2 0 2 0 7 60 -1 -1 0.000 0 0 -1 0 0 5
	 3622 1300 4189 1300 4189 2250 3622 2250 3622 1300
2 2 0 1 0 7 50 -1 13 0.000 0 0 -1 0 0 5
	 3668 2047 4143 2047 4143 2205 3668 2205 3668 2047
2 1 0 2 0 7 45 -1 -1 0.000 0 0 -1 1 0 4
	1 1 1.00 60.00 90.00
	 3915 1945 4417 1945 4417 1527 4641 1527
2 1 0 2 0 7 40 -1 -1 0.000 0 0 -1 1 0 2
	1 1 1.00 60.00 90.00
	 5940 2127 5228 2127
2 1 0 2 0 7 45 -1 -1 0.000 0 0 -1 0 0 3
	 3871 2124 3369 2124 3369 2324
2 2 0 1 0 7 50 -1 13 0.000 0 0 -1 0 0 5
	 3668 1866 4143 1866 4143 2024 3668 2024 3668 1866
2 1 0 2 -1 7 45 -1 -1 0.000 0 0 -1 1 0 3
	1 1 1.00 60.00 90.00
	 2672 1130 2672 1530 3600 1530
2 1 0 2 0 7 40 -1 -1 0.000 0 0 -1 0 0 2
	 7473 2127 6980 2127
2 1 0 2 0 7 40 -1 -1 0.000 0 0 -1 1 0 2
	1 1 1.00 60.00 90.00
	 6500 2127 6266 2127
2 1 0 2 0 7 45 -1 -1 0.000 0 0 -1 1 0 3
	1 1 1.00 60.00 90.00
	 3112 1123 7470 1125 7470 1305
2 1 1 2 0 7 50 0 -1 2.000 0 0 -1 0 0 2
	 6500 2127 6980 2127
2 1 0 2 0 7 45 -1 -1 0.000 0 0 -1 0 0 2
	 5985 1945 6500 1945
2 2 0 1 0 7 50 -1 17 0.000 0 0 -1 0 0 5
	 7223 1346 7698 1346 7698 1821 7223 1821 7223 1346
2 2 0 1 0 7 50 -1 13 0.000 0 0 -1 0 0 5
	 7223 1866 7698 1866 7698 2024 7223 2024 7223 1866
2 1 0 2 0 7 45 -1 -1 0.000 0 0 -1 0 0 3
	 7470 1945 7972 1945 7972 2145
2 2 0 1 0 7 50 -1 13 0.000 0 0 -1 0 0 5
	 7223 2047 7698 2047 7698 2205 7223 2205 7223 2047
2 2 0 2 0 7 60 -1 -1 0.000 0 0 -1 0 0 5
	 7177 1300 7744 1300 7744 2250 7177 2250 7177 1300
2 1 1 2 0 7 50 0 -1 2.000 0 0 -1 0 0 4
	 6500 1945 6705 1945 6705 1530 6930 1530
2 1 0 2 0 7 45 -1 -1 0.000 0 0 -1 1 0 2
	1 1 1.00 60.00 90.00
	 6930 1530 7154 1530
2 1 0 2 0 7 40 -1 -1 0.000 0 0 -1 1 0 2
	1 1 1.00 60.00 90.00
	 4908 2127 4196 2127
4 0 0 50 0 16 10 0.0000 4 120 90 3935 1710 1\001
4 0 0 50 0 16 10 0.0000 4 120 90 4970 1710 2\001
4 0 0 50 0 16 10 0.0000 4 120 90 6005 1710 3\001
4 0 0 50 0 16 16 0.0000 4 135 135 3805 1620 e\001
4 0 0 50 0 16 16 0.0000 4 135 135 4840 1620 e\001
4 0 0 50 0 16 16 0.0000 4 135 135 5875 1620 e\001
4 0 0 50 0 16 10 0.0000 4 120 120 7490 1710 N\001
4 0 0 50 0 16 16 0.0000 4 135 135 7360 1620 e\001
