#FIG 3.2  Produced by xfig version 3.2.5-alpha5
Landscape
Center
Metric
A4      
100.00
Single
-2
1200 2
6 1755 4230 2520 4995
2 4 0 2 0 7 50 -1 20 0.000 0 0 7 0 0 5
	 2475 4950 1800 4950 1800 4275 2475 4275 2475 4950
4 0 0 50 -1 22 18 0.0000 4 210 180 2047 4717 A\001
-6
6 2655 4230 3420 4995
2 4 0 2 0 7 50 -1 20 0.000 0 0 7 0 0 5
	 3375 4950 2700 4950 2700 4275 3375 4275 3375 4950
4 0 0 50 -1 22 18 0.0000 4 210 180 2947 4717 C\001
-6
6 3555 4230 4320 4995
2 4 0 2 0 7 50 -1 20 0.000 0 0 7 0 0 5
	 4275 4950 3600 4950 3600 4275 4275 4275 4275 4950
4 0 0 50 -1 22 18 0.0000 4 210 165 3855 4717 E\001
-6
6 4455 4230 5220 4995
2 4 0 2 0 7 50 -1 20 0.000 0 0 7 0 0 5
	 5175 4950 4500 4950 4500 4275 5175 4275 5175 4950
4 0 0 50 -1 22 18 0.0000 4 210 195 4740 4717 G\001
-6
6 4005 3330 4770 4095
2 4 0 2 0 7 50 -1 20 0.000 0 0 7 0 0 5
	 4725 4050 4050 4050 4050 3375 4725 3375 4725 4050
4 0 0 50 -1 22 18 0.0000 4 210 150 4312 3817 F\001
-6
6 3105 2430 3870 3195
2 4 0 2 0 7 50 -1 20 0.000 0 0 7 0 0 5
	 3825 3150 3150 3150 3150 2475 3825 2475 3825 3150
4 0 0 50 -1 22 18 0.0000 4 210 180 3397 2917 D\001
-6
6 2205 3330 2970 4095
2 4 0 2 0 7 50 -1 20 0.000 0 0 7 0 0 5
	 2925 4050 2250 4050 2250 3375 2925 3375 2925 4050
4 0 0 50 -1 22 18 0.0000 4 210 180 2497 3817 B\001
-6
2 1 0 10 0 7 60 -1 -1 0.000 0 0 -1 0 0 2
	 2115 4410 2475 3870
2 1 0 10 0 7 60 -1 -1 0.000 0 0 -1 0 0 2
	 3060 4410 2700 3870
2 1 0 10 0 7 60 -1 -1 0.000 0 0 -1 0 0 2
	 2610 3465 3330 2925
2 1 0 10 0 7 60 -1 -1 0.000 0 0 -1 0 0 2
	 4320 3465 3600 2925
2 1 0 10 0 7 60 -1 -1 0.000 0 0 -1 0 0 2
	 3915 4365 4275 3825
2 1 0 10 0 7 60 -1 -1 0.000 0 0 -1 0 0 2
	 4860 4410 4500 3870
