#FIG 3.2  Produced by xfig version 3.2.5c
Landscape
Center
Metric
A4      
100.00
Single
-2
1200 2
6 -1125 3330 4635 4095
2 4 0 2 0 7 50 -1 20 0.000 0 0 7 0 0 5
	 285 4050 -390 4050 -390 3375 285 3375 285 4050
2 4 0 2 0 7 50 -1 20 0.000 0 0 7 0 0 5
	 1005 4050 330 4050 330 3375 1005 3375 1005 4050
2 4 0 2 0 7 50 -1 20 0.000 0 0 7 0 0 5
	 1725 4050 1050 4050 1050 3375 1725 3375 1725 4050
2 4 0 2 0 7 50 -1 20 0.000 0 0 7 0 0 5
	 2445 4050 1770 4050 1770 3375 2445 3375 2445 4050
2 4 0 2 0 7 50 -1 20 0.000 0 0 7 0 0 5
	 3165 4050 2490 4050 2490 3375 3165 3375 3165 4050
2 4 0 2 0 7 50 -1 20 0.000 0 0 7 0 0 5
	 3885 4050 3210 4050 3210 3375 3885 3375 3885 4050
2 4 0 2 0 7 50 -1 20 0.000 0 0 7 0 0 5
	 4605 4050 3930 4050 3930 3375 4605 3375 4605 4050
2 4 0 2 0 7 50 -1 20 0.000 0 0 7 0 0 5
	 -435 4050 -1110 4050 -1110 3375 -435 3375 -435 4050
-6
2 4 0 2 0 7 50 -1 20 0.000 0 0 7 0 0 5
	 2040 1815 1365 1815 1365 1140 2040 1140 2040 1815
2 1 0 10 0 7 60 -1 -1 0.000 0 0 -1 0 0 2
	 3240 1935 1863 1566
2 1 0 10 0 7 60 -1 -1 0.000 0 0 -1 0 0 2
	 270 1890 1542 1566
2 1 0 10 0 7 60 -1 -1 0.000 0 0 -1 0 0 2
	 2385 2565 3195 1957
2 1 0 10 0 7 60 -1 -1 0.000 0 0 -1 0 0 2
	 -495 2565 225 1957
2 1 0 10 0 7 60 -1 -1 0.000 0 0 -1 0 0 2
	 990 2610 225 1957
2 1 0 10 0 7 60 -1 -1 0.000 0 0 -1 0 0 2
	 3825 2565 3240 1957
2 4 0 2 0 7 50 -1 20 0.000 0 0 7 0 0 5
	 -120 3150 -795 3150 -795 2475 -120 2475 -120 3150
2 4 0 2 0 7 50 -1 20 0.000 0 0 7 0 0 5
	 1275 3150 600 3150 600 2475 1275 2475 1275 3150
2 4 0 2 0 7 50 -1 20 0.000 0 0 7 0 0 5
	 585 2250 -90 2250 -90 1575 585 1575 585 2250
2 4 0 2 0 7 50 -1 20 0.000 0 0 7 0 0 5
	 4200 3150 3525 3150 3525 2475 4200 2475 4200 3150
2 4 0 2 0 7 50 -1 20 0.000 0 0 7 0 0 5
	 2760 3150 2085 3150 2085 2475 2760 2475 2760 3150
2 4 0 2 0 7 50 -1 20 0.000 0 0 7 0 0 5
	 3510 2265 2835 2265 2835 1590 3510 1590 3510 2265
2 1 0 10 0 7 60 -1 -1 0.000 0 0 -1 0 0 2
	 -855 3445 -467 2837
2 1 0 10 0 7 60 -1 -1 0.000 0 0 -1 0 0 2
	 556 3445 944 2837
2 1 0 10 0 7 60 -1 -1 0.000 0 0 -1 0 0 2
	 2033 3445 2421 2837
2 1 0 10 0 7 60 -1 -1 0.000 0 0 -1 0 0 2
	 3491 3445 3879 2837
2 1 0 10 0 7 60 -1 -1 0.000 0 0 -1 0 0 2
	 -79 3445 -467 2837
2 1 0 10 0 7 60 -1 -1 0.000 0 0 -1 0 0 2
	 1375 3445 987 2837
2 1 0 10 0 7 60 -1 -1 0.000 0 0 -1 0 0 2
	 2806 3445 2418 2837
2 1 0 10 0 7 60 -1 -1 0.000 0 0 -1 0 0 2
	 4232 3445 3844 2837
