#FIG 3.2  Produced by xfig version 3.2.5-alpha5
Landscape
Center
Metric
A4      
100.00
Single
-2
1200 2
6 3375 3240 3735 3600
1 3 0 3 0 7 55 0 17 0.000 1 0.0000 3555 3420 135 135 3555 3420 3690 3420
4 1 0 50 0 14 16 0.0000 4 165 165 3555 3500 T\001
-6
2 4 0 1 0 7 58 0 20 0.000 0 0 4 0 0 5
	 3690 3330 3420 3330 3420 3060 3690 3060 3690 3330
2 1 0 1 0 7 60 0 -1 0.000 0 0 7 0 0 5
	 3465 3285 3240 3465 2610 4365 3240 4365 3240 3465
2 1 0 1 0 7 60 0 -1 0.000 0 0 7 0 0 5
	 3645 3285 3870 3465 4500 4365 3870 4365 3870 3465
2 1 0 3 0 7 60 0 -1 0.000 0 0 -1 1 0 9
	1 1 1.00 150.00 210.00
	 3121 3462 2446 4452 3330 4455 3330 3510 3555 3330 3780 3510
	 3780 4455 4696 4452 4021 3462
4 0 0 50 0 16 10 0.0000 4 120 90 4140 4275 2\001
4 1 0 50 0 16 16 0.0000 4 195 180 4050 4230 B\001
4 1 0 50 0 16 16 0.0000 4 195 180 2970 4230 B\001
4 0 0 50 0 16 10 0.0000 4 120 90 3060 4275 1\001
