#FIG 3.2
Landscape
Center
Metric
A4      
100.00
Single
-2
1200 2
6 7818 2115 8133 2295
2 1 0 2 0 7 50 0 -1 0.000 0 0 -1 0 0 2
	 7863 2160 8088 2160
2 1 0 2 0 7 50 0 -1 0.000 0 0 -1 0 0 2
	 7908 2205 8043 2205
2 1 0 2 0 7 50 0 -1 0.000 0 0 -1 0 0 2
	 7953 2250 7998 2250
-6
6 5085 1260 6750 2115
1 3 0 1 0 0 40 0 20 0.000 1 0.0000 5400 1935 25 25 5400 1935 5425 1935
1 3 0 1 0 0 40 0 20 0.000 1 0.0000 6435 1935 25 25 6435 1935 6460 1935
2 2 0 1 0 7 50 -1 17 0.000 0 0 -1 0 0 5
	 6188 1346 6663 1346 6663 1821 6188 1821 6188 1346
2 2 0 1 0 7 50 -1 13 0.000 0 0 -1 0 0 5
	 6188 1866 6663 1866 6663 2024 6188 2024 6188 1866
2 2 0 1 0 7 50 -1 17 0.000 0 0 -1 0 0 5
	 5153 1346 5628 1346 5628 1821 5153 1821 5153 1346
2 2 0 2 0 7 60 -1 -1 0.000 0 0 -1 0 0 5
	 5107 1300 5674 1300 5674 2075 5107 2075 5107 1300
2 2 0 1 0 7 50 -1 13 0.000 0 0 -1 0 0 5
	 5153 1866 5628 1866 5628 2024 5153 2024 5153 1866
2 1 0 2 0 7 45 -1 -1 0.000 0 0 -1 1 0 4
	1 1 1.00 60.00 90.00
	 5400 1935 5895 1935 5895 1530 6120 1530
2 2 0 2 0 7 60 -1 -1 0.000 0 0 -1 0 0 5
	 6142 1300 6709 1300 6709 2075 6142 2075 6142 1300
4 0 0 50 0 16 16 0.0000 4 135 135 5290 1620 e\001
4 0 0 50 0 16 16 0.0000 4 135 135 6325 1620 e\001
4 0 0 50 0 16 10 0.0000 4 120 90 5420 1710 3\001
4 0 0 50 0 16 10 0.0000 4 120 90 6455 1710 2\001
-6
1 3 0 1 0 0 45 0 20 0.000 1 0.0000 2674 1531 25 25 2674 1531 2699 1531
1 3 0 1 0 0 40 0 20 0.000 1 0.0000 3915 1935 25 25 3915 1935 3940 1935
1 3 0 1 0 0 45 0 20 0.000 1 0.0000 7457 1945 25 25 7457 1945 7482 1945
2 2 0 1 0 7 50 -1 17 0.000 0 0 -1 0 0 5
	 3668 1346 4143 1346 4143 1821 3668 1821 3668 1346
2 2 0 1 0 7 50 -1 13 0.000 0 0 -1 0 0 5
	 3668 1866 4143 1866 4143 2024 3668 2024 3668 1866
2 2 0 2 0 7 60 -1 -1 0.000 0 0 -1 0 0 5
	 3622 1300 4189 1300 4189 2075 3622 2075 3622 1300
2 1 0 2 -1 7 45 -1 -1 0.000 0 0 -1 1 0 2
	1 1 1.00 60.00 90.00
	 2672 1530 3600 1530
2 2 0 2 0 7 50 -1 13 0.000 0 0 -1 0 0 5
	 2427 1416 2932 1416 2932 1656 2427 1656 2427 1416
2 2 0 1 0 7 50 -1 17 0.000 0 0 -1 0 0 5
	 7223 1346 7698 1346 7698 1821 7223 1821 7223 1346
2 2 0 1 0 7 50 -1 13 0.000 0 0 -1 0 0 5
	 7223 1866 7698 1866 7698 2024 7223 2024 7223 1866
2 1 0 2 0 7 45 -1 -1 0.000 0 0 -1 0 0 3
	 7470 1945 7972 1945 7972 2145
2 2 0 2 0 7 60 -1 -1 0.000 0 0 -1 0 0 5
	 7177 1300 7744 1300 7744 2075 7177 2075 7177 1300
2 1 0 2 0 7 45 -1 -1 0.000 0 0 -1 1 0 4
	1 1 1.00 60.00 90.00
	 6435 1935 6930 1935 6930 1530 7155 1530
2 1 0 2 0 7 45 -1 -1 0.000 0 0 -1 0 0 2
	 3915 1935 4320 1935
2 1 0 2 0 7 45 -1 -1 0.000 0 0 -1 1 0 2
	1 1 1.00 60.00 90.00
	 4815 1530 5085 1530
2 1 1 2 0 7 45 -1 -1 2.000 0 0 -1 0 0 4
	 4320 1935 4635 1935 4635 1530 4815 1530
4 0 0 50 0 16 16 0.0000 4 135 135 3805 1620 e\001
4 1 0 50 0 14 14 0.0000 4 150 810 2700 1890 sommet\001
4 0 0 50 0 16 10 0.0000 4 120 120 3935 1710 N\001
4 0 0 50 0 16 16 0.0000 4 135 135 7360 1620 e\001
4 0 0 50 0 16 10 0.0000 4 120 90 7490 1710 1\001
