#FIG 3.2  Produced by xfig version 3.2.5
Landscape
Center
Metric
A4      
100.00
Single
-2
1200 2
6 4230 1530 7020 3330
2 1 0 2 0 7 50 -1 -1 0.000 0 0 -1 0 0 2
	 4275 2025 6975 2025
2 1 0 1 0 7 50 -1 -1 0.000 0 0 -1 0 0 2
	 4950 1575 4950 3285
2 1 0 1 0 7 50 -1 -1 0.000 0 0 -1 0 0 2
	 5310 1575 5310 3285
2 1 0 1 0 7 50 -1 -1 0.000 0 0 -1 0 0 2
	 6030 1575 6030 3285
2 1 0 1 0 7 50 -1 -1 0.000 0 0 -1 0 0 2
	 6390 1575 6390 3285
2 1 0 1 0 7 50 -1 -1 0.000 0 0 -1 0 0 2
	 6750 1575 6750 3285
2 2 0 2 0 7 60 -1 20 0.000 0 0 -1 0 0 5
	 4275 1575 6975 1575 6975 3285 4275 3285 4275 1575
-6
2 1 0 4 21 7 35 -1 -1 0.000 0 0 -1 0 0 2
	 4275 2340 6975 2340
